{
  "project_info": {
    "project_number": "212204650532",
    "project_id": "govid-test",
    "storage_bucket": "govid-test.appspot.com"
  },
  "client": [
    {
      "client_info": {
        "mobilesdk_app_id": "1:212204650532:android:afb143482bc5630800d8b1",
        "android_client_info": {
          "package_name": "vn.ngs.thainguyen"
        }
      },
      "oauth_client": [
        {
          "client_id": "212204650532-7tee62bs1166vntv2u8rhjarjjburi5o.apps.googleusercontent.com",
          "client_type": 3
        }
      ],
      "api_key": [
        {
          "current_key": "AIzaSyB5nqzz9toMf9-5hJs19AHCFRdjHse0m0Q"
        }
      ],
      "services": {
        "appinvite_service": {
          "other_platform_oauth_client": [
            {
              "client_id": "212204650532-7tee62bs1166vntv2u8rhjarjjburi5o.apps.googleusercontent.com",
              "client_type": 3
            }
          ]
        }
      }
    },
    {
      "client_info": {
        "mobilesdk_app_id": "1:212204650532:android:7f34332862a58a6400d8b1",
        "android_client_info": {
          "package_name": "vn.ngs.thainguyen.debug"
        }
      },
      "oauth_client": [
        {
          "client_id": "212204650532-7tee62bs1166vntv2u8rhjarjjburi5o.apps.googleusercontent.com",
          "client_type": 3
        }
      ],
      "api_key": [
        {
          "current_key": "AIzaSyB5nqzz9toMf9-5hJs19AHCFRdjHse0m0Q"
        }
      ],
      "services": {
        "appinvite_service": {
          "other_platform_oauth_client": [
            {
              "client_id": "212204650532-7tee62bs1166vntv2u8rhjarjjburi5o.apps.googleusercontent.com",
              "client_type": 3
            }
          ]
        }
      }
    },
    {
      "client_info": {
        "mobilesdk_app_id": "1:212204650532:android:32f31c4c236b6e9000d8b1",
        "android_client_info": {
          "package_name": "vn.ngs.thainguyen.staging"
        }
      },
      "oauth_client": [
        {
          "client_id": "212204650532-7tee62bs1166vntv2u8rhjarjjburi5o.apps.googleusercontent.com",
          "client_type": 3
        }
      ],
      "api_key": [
        {
          "current_key": "AIzaSyB5nqzz9toMf9-5hJs19AHCFRdjHse0m0Q"
        }
      ],
      "services": {
        "appinvite_service": {
          "other_platform_oauth_client": [
            {
              "client_id": "212204650532-7tee62bs1166vntv2u8rhjarjjburi5o.apps.googleusercontent.com",
              "client_type": 3
            }
          ]
        }
      }
    }
  ],
  "configuration_version": "1"
}